R Studio Conference 2020
…
---

class: split-40
count: false
.column[.content[

```r
*wea_ames_30yrs
```
]]
.column[.content[

```
## # A tibble: 10,957 x 10
##    station station_name   lat   lon day          doy  high   low precip
##    <chr>   <chr>        <dbl> <dbl> <date>     <dbl> <dbl> <dbl>  <dbl>
##  1 IA0200  AMES-8-WSW    42.0 -93.8 1990-01-01     1    31     8 0.0001
##  2 IA0200  AMES-8-WSW    42.0 -93.8 1990-01-02     2    46    15 0     
##  3 IA0200  AMES-8-WSW    42.0 -93.8 1990-01-03     3    45    25 0     
##  4 IA0200  AMES-8-WSW    42.0 -93.8 1990-01-04     4    40    20 0.0001
##  5 IA0200  AMES-8-WSW    42.0 -93.8 1990-01-05     5    44    13 0     
##  6 IA0200  AMES-8-WSW    42.0 -93.8 1990-01-06     6    40    14 0     
##  7 IA0200  AMES-8-WSW    42.0 -93.8 1990-01-07     7    49    24 0     
##  8 IA0200  AMES-8-WSW    42.0 -93.8 1990-01-08     8    50    24 0.0001
##  9 IA0200  AMES-8-WSW    42.0 -93.8 1990-01-09     9    38    31 0.0001
## 10 IA0200  AMES-8-WSW    42.0 -93.8 1990-01-10    10    47    19 0     
## # ... with 10,947 more rows, and 1 more variable: merra_srad <dbl>
```
…
```r
wea_ames_30yrs %>%  
* select(station_name,
*        day,
*        precip)
```
]]
.column[.content[

```
## # A tibble: 10,957 x 3
##    station_name day        precip
##    <chr>        <date>      <dbl>
##  1 AMES-8-WSW   1990-01-01 0.0001
##  2 AMES-8-WSW   1990-01-02 0     
##  3 AMES-8-WSW   1990-01-03 0     
##  4 AMES-8-WSW   1990-01-04 0.0001
##  5 AMES-8-WSW   1990-01-05 0     
##  6 AMES-8-WSW   1990-01-06 0     
##  7 AMES-8-WSW   1990-01-07 0     
##  8 AMES-8-WSW   1990-01-08 0.0001
##  9 AMES-8-WSW   1990-01-09 0.0001
## 10 AMES-8-WSW   1990-01-10 0     
## # ... with 10,947 more rows
```
…
```r
wea_ames_30yrs %>%  
  select(station_name,  
         day,  
         precip) %>%  
* mutate(year_id = year(day))
```
]]
.column[.content[

```
## # A tibble: 10,957 x 4
##    station_name day        precip year_id
##    <chr>        <date>      <dbl>   <dbl>
##  1 AMES-8-WSW   1990-01-01 0.0001    1990
##  2 AMES-8-WSW   1990-01-02 0         1990
##  3 AMES-8-WSW   1990-01-03 0         1990
##  4 AMES-8-WSW   1990-01-04 0.0001    1990
##  5 AMES-8-WSW   1990-01-05 0         1990
##  6 AMES-8-WSW   1990-01-06 0         1990
##  7 AMES-8-WSW   1990-01-07 0         1990
##  8 AMES-8-WSW   1990-01-08 0.0001    1990
##  9 AMES-8-WSW   1990-01-09 0.0001    1990
## 10 AMES-8-WSW   1990-01-10 0         1990
## # ... with 10,947 more rows
```
…
```r
wea_ames_30yrs %>%  
  select(station_name,  
         day,  
         precip) %>%  
  mutate(year_id = year(day)) %>%  
* group_by(year_id)
```
]]
.column[.content[

```
## # A tibble: 10,957 x 4
## # Groups:   year_id [30]
##    station_name day        precip year_id
##    <chr>        <date>      <dbl>   <dbl>
##  1 AMES-8-WSW   1990-01-01 0.0001    1990
##  2 AMES-8-WSW   1990-01-02 0         1990
##  3 AMES-8-WSW   1990-01-03 0         1990
##  4 AMES-8-WSW   1990-01-04 0.0001    1990
##  5 AMES-8-WSW   1990-01-05 0         1990
##  6 AMES-8-WSW   1990-01-06 0         1990
##  7 AMES-8-WSW   1990-01-07 0         1990
##  8 AMES-8-WSW   1990-01-08 0.0001    1990
##  9 AMES-8-WSW   1990-01-09 0.0001    1990
## 10 AMES-8-WSW   1990-01-10 0         1990
## # ... with 10,947 more rows
```
…
```r
wea_ames_30yrs %>%  
  select(station_name,  
         day,  
         precip) %>%  
  mutate(year_id = year(day)) %>%  
  group_by(year_id) %>%  
* summarise(totp = sum(precip))
```
]]
.column[.content[

```
## # A tibble: 30 x 2
##    year_id  totp
##      <dbl> <dbl>
##  1    1990  44.3
##  2    1991  40.0
##  3    1992  34.2
##  4    1993  56.4
##  5    1994  28.3
##  6    1995  28.7
##  7    1996  36.8
##  8    1997  26.3
##  9    1998  35.0
## 10    1999  40.1
## # ... with 20 more rows
```
…
---

class: split-40
count: false
.column[.content[

```r
*wea_sum
```
]]
.column[.content[

```
## # A tibble: 30 x 2
##    year_id  totp
##      <dbl> <dbl>
##  1    1990  44.3
##  2    1991  40.0
##  3    1992  34.2
##  4    1993  56.4
##  5    1994  28.3
##  6    1995  28.7
##  7    1996  36.8
##  8    1997  26.3
##  9    1998  35.0
## 10    1999  40.1
## # ... with 20 more rows
```
…
